Tidy basketball – Data tidying and importing
…
Solution

We have a player column in the dataset. In order to get a game, location, and points, we can use pivot_longer(), which will take this wide dataset and make it into a longer dataset. That is, we can bring the variable names of game1_home, game2_home, etc. into our dataset as values, which is needed to recreate the plot above.

See more information about pivot_longer() here. We are going to create our final dataset in steps. First use pivot_longer() to change our dataset that has 90 rows and 3 columns that are named player, game, and points.

Solution

blazer |>
  pivot_longer(
    cols = -player,
    names_to = "game",
    values_to = "points")

# A tibble: 90 × 3
   player         game        points
   <chr>          <chr>        <dbl>
 1 Damian Lillard game1_home      20
 2 Damian Lillard game2_home      19
 3 Damian Lillard game3_away      12
 4 Damian Lillard game4_home      20
 5 Damian Lillard game5_home      25
 6 Damian Lillard game6_away      14
 7 Damian Lillard game7_away      20
 8 Damian Lillard game8_away      26
 9 Damian Lillard game9_home       4
10 Damian Lillard game10_home     25
# ℹ 80 more rows
…
create a location column

Revisit the documentation for pivot_longer(). Add the argument names_prefix to your existing code above to remove the text “game” from the game column.

Solution

blazer |>
  pivot_longer(
    cols = -player,
    names_to = "game",
    values_to = "points",
    names_prefix = "game"
  )

# A tibble: 90 × 3
   player         game    points
   <chr>          <chr>    <dbl>
 1 Damian Lillard 1_home      20
 2 Damian Lillard 2_home      19
 3 Damian Lillard 3_away      12
 4 Damian Lillard 4_home      20
 5 Damian Lillard 5_home      25
 6 Damian Lillard 6_away      14
 7 Damian Lillard 7_away      20
 8 Damian Lillard 8_away      26
 9 Damian Lillard 9_home       4
10 Damian Lillard 10_home     25
# ℹ 80 more rows
We now need to separate the values away from the location in the game column. Please see the documentation on separate_wider_delim here. Add to your existing code to split the game number and game location into two columns. Call the new column location. Save and name this dataset as blazer_long to use in the next section.

Solution

blazer_long <- blazer |>
  pivot_longer(
    cols = -player,
    names_to = "game",
    values_to = "points",
    names_prefix = "game") |>
    separate_wider_delim(game, delim = "_", names = c("game", "location"))

blazer_long

# A tibble: 90 × 4
   player         game  location points
   <chr>          <chr> <chr>     <dbl>
 1 Damian Lillard 1     home         20
 2 Damian Lillard 2     home         19
 3 Damian Lillard 3     away         12
 4 Damian Lillard 4     home         20
 5 Damian Lillard 5     home         25
 6 Damian Lillard 6     away         14
 7 Damian Lillard 7     away         20
 8 Damian Lillard 8     away         26
 9 Damian Lillard 9     home          4
10 Damian Lillard 10    home         25
# ℹ 80 more rows
…
