Continent populations (Complete) – Data tidying and importing
…
Data

Population

These data come from The World Bank and reflect population counts for the years 2000 to 2023. The populations given are mid-year estimates.

population <- read_csv("https://data-science-with-r.github.io/data/population.csv")

Let’s take a look at the data.

population

# A tibble: 217 × 28
   series_name series_code country_name country_code `2000` `2001` `2002` `2003`
   <chr>       <chr>       <chr>        <chr>         <dbl>  <dbl>  <dbl>  <dbl>
 1 Population… SP.POP.TOTL Afghanistan  AFG          1.95e7 1.97e7 2.10e7 2.26e7
 2 Population… SP.POP.TOTL Albania      ALB          3.09e6 3.06e6 3.05e6 3.04e6
 3 Population… SP.POP.TOTL Algeria      DZA          3.08e7 3.12e7 3.16e7 3.21e7
 4 Population… SP.POP.TOTL American Sa… ASM          5.82e4 5.83e4 5.82e4 5.79e4
 5 Population… SP.POP.TOTL Andorra      AND          6.61e4 6.78e4 7.08e4 7.39e4
 6 Population… SP.POP.TOTL Angola       AGO          1.64e7 1.69e7 1.75e7 1.81e7
 7 Population… SP.POP.TOTL Antigua and… ATG          7.51e4 7.62e4 7.72e4 7.81e4
 8 Population… SP.POP.TOTL Argentina    ARG          3.71e7 3.75e7 3.79e7 3.83e7
 9 Population… SP.POP.TOTL Armenia      ARM          3.17e6 3.13e6 3.11e6 3.08e6
10 Population… SP.POP.TOTL Aruba        ABW          8.91e4 9.07e4 9.18e4 9.27e4
# ℹ 207 more rows
# ℹ 20 more variables: `2004` <dbl>, `2005` <dbl>, `2006` <dbl>, `2007` <dbl>,
#   `2008` <dbl>, `2009` <dbl>, `2010` <dbl>, `2011` <dbl>, `2012` <dbl>,
#   `2013` <dbl>, `2014` <dbl>, `2015` <dbl>, `2016` <dbl>, `2017` <dbl>,
#   `2018` <dbl>, `2019` <dbl>, `2020` <dbl>, `2021` <dbl>, `2022` <dbl>,
#   `2023` <dbl>

Continents

These data come from Our World in Data.

continents <- read_csv("https://data-science-with-r.github.io/data/continents.csv")

Let’s take a look at the data.

continents

# A tibble: 285 × 4
   entity                code      year continent    
   <chr>                 <chr>    <dbl> <chr>        
 1 Abkhazia              OWID_ABK  2015 Asia         
 2 Afghanistan           AFG       2015 Asia         
 3 Akrotiri and Dhekelia OWID_AKD  2015 Asia         
 4 Aland Islands         ALA       2015 Europe       
 5 Albania               ALB       2015 Europe       
 6 Algeria               DZA       2015 Africa       
 7 American Samoa        ASM       2015 Oceania      
 8 Andorra               AND       2015 Europe       
 9 Angola                AGO       2015 Africa       
10 Anguilla              AIA       2015 North America
# ℹ 275 more rows
…
