Data tidying and importing – Data types
…
  Data tidying and importing

 Data Science with R 

Why should you care about data types?

Example: Cat lovers

A survey asked respondents their name and number of cats. The instructions said to enter the number of cats as a numerical value.

cat_lovers <- read_csv("data/cat-lovers.csv")
cat_lovers

# A tibble: 60 × 2
   name           number_of_cats
   <chr>          <chr>         
 1 Bernice Warren 0             
 2 Woodrow Stone  0             
 3 Willie Bass    1             
 4 Tyrone Estrada 3             
 5 Alex Daniels   3             
 6 Jane Bates     2             
 7 Latoya Simpson 1             
 8 Darin Woods    1             
 9 Agnes Cobb     0             
10 Tabitha Grant  0             
# ℹ 50 more rows
…
