Data tidying and importing – Importing data
…
Rows: 1000 Columns: 19
── Column specification ────────────────────────────────────
Delimiter: ","
chr (17): first_name, last_name, born, died, born_countr...
dbl  (2): id, year

ℹ Use `spec()` to retrieve the full column specification for this data.
ℹ Specify the column types or set `show_col_types = FALSE` to quiet this message.

Reading data

nobel

# A tibble: 1,000 × 19
      id first_name     last_name   born  died  born_country
   <dbl> <chr>          <chr>       <chr> <chr> <chr>       
 1   160 Jacobus H.     van 't Hoff 1852… 3/1/… the Netherl…
 2   569 Sully          Prudhomme   1839… 9/7/… France      
 3   293 Emil           von Behring 1854… 3/31… Prussia (no…
 4   462 Henry          Dunant      1828… 10/3… Switzerland 
 5     1 Wilhelm Conrad Röntgen     1845… 2/10… Prussia (no…
 6   463 Frédéric       Passy       1822… 6/12… France      
 7   464 Élie           Ducommun    1833… 12/7… Switzerland 
 8   465 Albert         Gobat       1843… 3/16… Switzerland 
 9   294 Ronald         Ross        1857… 9/16… India       
10   161 Emil           Fischer     1852… 7/15… Prussia (no…
# ℹ 990 more rows
# ℹ 13 more variables: born_country_code <chr>,
#   born_city <chr>, died_country <chr>,
#   died_country_code <chr>, died_city <chr>, gender <chr>,
#   year <dbl>, category <chr>, overall_motivation <chr>,
#   motivation <chr>, organization_name <chr>,
#   organization_city <chr>, organization_country <chr>
…
col_skip()
do not read

col_time()
time

Reading Excel spreadsheets

Reading data

nobel <- read_excel(path = "data/nobel.xlsx")

nobel

# A tibble: 1,000 × 19
      id first_name     last_name  born  died               
   <dbl> <chr>          <chr>      <chr> <dttm>             
 1   160 Jacobus H.     van 't Ho… 1852… 1911-03-01 00:00:00
 2   569 Sully          Prudhomme  1839… 1907-09-07 00:00:00
 3   293 Emil           von Behri… 1854… 1917-03-31 00:00:00
 4   462 Henry          Dunant     1828… 1910-10-30 00:00:00
 5     1 Wilhelm Conrad Röntgen    1845… 1923-02-10 00:00:00
 6   463 Frédéric       Passy      1822… 1912-06-12 00:00:00
 7   464 Élie           Ducommun   1833… 1906-12-07 00:00:00
 8   465 Albert         Gobat      1843… 1914-03-16 00:00:00
 9   294 Ronald         Ross       1857… 1932-09-16 00:00:00
10   161 Emil           Fischer    1852… 1919-07-15 00:00:00
# ℹ 990 more rows
# ℹ 14 more variables: born_country <chr>,
#   born_country_code <chr>, born_city <chr>,
#   died_country <chr>, died_country_code <chr>,
#   died_city <chr>, gender <chr>, year <dbl>,
#   category <chr>, overall_motivation <chr>,
#   motivation <chr>, organization_name <chr>, …
…
